build/register_file_tb.vcd
$date
	Wed Feb 18 16:36:18 2026
$end
$version
	Icarus Verilog
$end
$timescale
	1ps
$end
$scope module register_file_tb $end
$var wire 64 ! read_data2 [63:0] $end
$var wire 64 " read_data1 [63:0] $end
$var reg 1 # clk $end
$var reg 5 $ read_reg1 [4:0] $end
$var reg 5 % read_reg2 [4:0] $end
$var reg 1 & reg_write_en $end
$var reg 1 ' reset $end
$var reg 64 ( write_data [63:0] $end
$var reg 5 ) write_reg [4:0] $end
$scope module uut $end
$var wire 1 # clk $end
$var wire 64 * read_data1 [63:0] $end
$var wire 64 + read_data2 [63:0] $end
$var wire 5 , read_reg1 [4:0] $end
$var wire 5 - read_reg2 [4:0] $end
$var wire 1 & reg_write_en $end
$var wire 1 ' reset $end
$var wire 64 . write_data [63:0] $end
$var wire 5 / write_reg [4:0] $end
$var integer 32 0 i [31:0] $end
$upscope $end
$scope task run_test $end
$var reg 64 1 expected1 [63:0] $end
$var reg 64 2 expected2 [63:0] $end
$var reg 5 3 t_read_reg1 [4:0] $end
$var reg 5 4 t_read_reg2 [4:0] $end
$var reg 1 5 t_reg_write_en $end
$var reg 1 6 t_reset $end
$var reg 64 7 t_write_data [63:0] $end
$var reg 5 8 t_write_reg [4:0] $end
$var reg 5 9 tno [4:0] $end
$upscope $end
$upscope $end
$enddefinitions $end
$comment Show the parameter values. $end
$dumpall
$end
#0
$dumpvars
b1 9
b0 8
b1111111111111111111111111111111111111111111111111111111111111111 7
06
15
b0 4
b0 3
b0 2
b0 1
b100000 0
bx /
bx .
bx -
bx ,
bx +
bx *
bx )
bx (
x'
x&
bx %
bx $
0#
bx "
bx !
$end
#5000
1#
#10000
b1111111111111111111111111111111111111111111111111111111111111111 (
b1111111111111111111111111111111111111111111111111111111111111111 .
b0 )
b0 /
b0 !
b0 +
b0 %
b0 -
b0 "
b0 *
b0 $
b0 ,
1&
0'
0#
#15000
1#
#17000
b1101111010101101101111101110111111011110101011011011111011101111 1
b1101111010101101101111101110111111011110101011011011111011101111 7
b1 8
b1 3
b10 9
#20000
b1101111010101101101111101110111111011110101011011011111011101111 (
b1101111010101101101111101110111111011110101011011011111011101111 .
b1 )
b1 /
b1 $
b1 ,
0#
#25000
b1101111010101101101111101110111111011110101011011011111011101111 "
b1101111010101101101111101110111111011110101011011011111011101111 *
1#
#27000
b1100101011111110101110101011111011001010111111101011101010111110 2
b1100101011111110101110101011111011001010111111101011101010111110 7
b10 8
b10 4
b11 9
#30000
b1100101011111110101110101011111011001010111111101011101010111110 (
b1100101011111110101110101011111011001010111111101011101010111110 .
b10 )
b10 /
b10 %
b10 -
0#
#35000
b1100101011111110101110101011111011001010111111101011101010111110 !
b1100101011111110101110101011111011001010111111101011101010111110 +
1#
#37000
b1000100010001000100010001000100010001000100010001000100010001 7
b1 8
05
b100 9
#40000
b1000100010001000100010001000100010001000100010001000100010001 (
b1000100010001000100010001000100010001000100010001000100010001 .
b1 )
b1 /
0&
0#
#45000
1#
#47000
b1101111010101101101111101110111111011110101011011011111011101111 2
b0 1
b1111111111111111111111111111111111111111111111111111111111111111 7
b0 8
b1 4
b0 3
15
b101 9
#50000
b1111111111111111111111111111111111111111111111111111111111111111 (
b1111111111111111111111111111111111111111111111111111111111111111 .
b0 )
b0 /
b1101111010101101101111101110111111011110101011011011111011101111 !
b1101111010101101101111101110111111011110101011011011111011101111 +
b1 %
b1 -
b0 "
b0 *
b0 $
b0 ,
1&
0#
#55000
1#
#57000
b0 2
b1001000110100010101100111100010010000101010111100110111101111 1
b1001000110100010101100111100010010000101010111100110111101111 7
b11111 8
b0 4
b11111 3
b110 9
#60000
b1001000110100010101100111100010010000101010111100110111101111 (
b1001000110100010101100111100010010000101010111100110111101111 .
b11111 )
b11111 /
b0 !
b0 +
b0 %
b0 -
b11111 $
b11111 ,
0#
#65000
b1001000110100010101100111100010010000101010111100110111101111 "
b1001000110100010101100111100010010000101010111100110111101111 *
1#
#67000
b1100101011111110101110101011111011001010111111101011101010111110 2
b1100101011111110101110101011111011001010111111101011101010111110 1
b0 7
b0 8
b10 4
b10 3
05
b111 9
#70000
b0 (
b0 .
b0 )
b0 /
b1100101011111110101110101011111011001010111111101011101010111110 !
b1100101011111110101110101011111011001010111111101011101010111110 +
b10 %
b10 -
b1100101011111110101110101011111011001010111111101011101010111110 "
b1100101011111110101110101011111011001010111111101011101010111110 *
b10 $
b10 ,
0&
0#
