build/seq_tb.vcd
$date
	Sat Feb 21 01:13:45 2026
$end
$version
	Icarus Verilog
$end
$timescale
	1ps
$end
$scope module seq_processor_tb $end
$scope module uut $end
$var wire 1 ! clk $end
$var wire 1 " reset $end
$var wire 1 # zero_flag $end
$var wire 64 $ write_data [63:0] $end
$var wire 1 % reg_write_en $end
$var wire 64 & read_data_mem [63:0] $end
$var wire 64 ' read_data2 [63:0] $end
$var wire 64 ( read_data1 [63:0] $end
$var wire 64 ) pc_out [63:0] $end
$var wire 64 * pc_in [63:0] $end
$var wire 64 + mux_pc_2 [63:0] $end
$var wire 64 , mux_pc_1 [63:0] $end
$var wire 32 - instr [31:0] $end
$var wire 64 . imm_shifted [63:0] $end
$var wire 64 / imm [63:0] $end
$var wire 64 0 alu_result [63:0] $end
$var wire 64 1 alu_in2 [63:0] $end
$var wire 1 2 MemWrite $end
$var wire 1 3 MemToReg $end
$var wire 1 4 MemRead $end
$var wire 1 5 Branch_and_zero $end
$var wire 1 6 Branch $end
$var wire 1 7 ALUSrc $end
$var wire 2 8 ALUOp [1:0] $end
$var wire 4 9 ALUControl [3:0] $end
$upscope $end
$upscope $end
$enddefinitions $end
$comment Show the parameter values. $end
$dumpall
$end
#0
$dumpvars
b10 9
b0 8
17
06
05
04
13
02
b101 1
b101 0
b101 /
b1010 .
b10100000000000100010011 -
b100 ,
b1010 +
b100 *
b0 )
b0 (
b0 '
b0 &
1%
b0 $
0#
1"
0!
$end
#2000
0"
#5000
b1010 0
b1010 1
b10100 .
b1010 /
b1000 *
b101000000000000110010011 -
b1000 ,
b11000 +
b100 )
1!
#10000
0!
#15000
1#
b0 0
b0 $
07
b10 8
03
b0 1
b0 .
b0 /
b1100 *
b1100010000000010110011 -
b1100 ,
b1000 +
b1000 )
1!
#20000
0!
#25000
b110 9
b10000 *
b1000000001100010000000100110011 -
b10000 ,
b1100 +
b1100 )
1!
#30000
0!
#35000
b0 9
b10100 *
b1100011111001000110011 -
b10100 ,
b10000 +
b10000 )
1!
#40000
0!
#45000
b11000 *
b10000011111001010110011 -
b11000 ,
b10100 +
b10100 )
1!
#50000
0!
#55000
b1 9
b11100 *
b10000010110001100110011 -
b11100 ,
b11000 +
b11000 )
1!
#60000
0!
#65000
b100000 *
b1100010110001110110011 -
b100000 ,
b11100 +
b11100 )
1!
#70000
0!
#75000
b10 9
0%
17
12
b0 8
b100100 *
b100101011000000100011 -
b100100 ,
b100000 +
b100000 )
1!
#80000
0!
#85000
1#
b0 0
1%
02
13
14
b0 1
b0 .
b0 /
b101000 *
b101011010100000011 -
b101000 ,
b100100 +
b100100 )
1!
#90000
0!
#95000
b11000 $
0#
b11000 0
0%
12
03
04
b11000 1
b110000 .
b11000 /
b101100 *
b11000101011110000100011 -
b101100 ,
b1011000 +
b101000 )
1!
#100000
0!
#105000
b11000 0
b0 $
1%
02
13
14
b11000 1
b110000 .
b11000 /
b110000 *
b1100000101011010110000011 -
b110000 ,
b1011100 +
b101100 )
1!
#110000
0!
#115000
15
1#
b0 0
b0 $
b110 9
0%
07
b1 8
03
04
16
b0 1
b10000 .
b1000 /
b1000000 *
b10100100000010001100011 -
b110100 ,
b1000000 +
b110000 )
1!
#120000
0!
#125000
b10 9
05
b0 8
06
b0 .
b0 /
b1000100 *
b0 -
b1000100 ,
b1000000 +
b1000000 )
1!
#130000
0!
#135000
b1001000 *
b1001000 ,
b1000100 +
b1000100 )
1!
#140000
0!
#145000
b1001100 *
b1001100 ,
b1001000 +
b1001000 )
1!
#150000
0!
#155000
b1010000 *
b1010000 ,
b1001100 +
b1001100 )
1!
#160000
0!
#165000
b1010100 *
b1010100 ,
b1010000 +
b1010000 )
1!
#170000
0!
#175000
b1011000 *
b1011000 ,
b1010100 +
b1010100 )
1!
#180000
0!
#185000
b1011100 *
b1011100 ,
b1011000 +
b1011000 )
1!
#190000
0!
#195000
b1100000 *
b1100000 ,
b1011100 +
b1011100 )
1!
#200000
0!
#205000
b1100100 *
b1100100 ,
b1100000 +
b1100000 )
1!
#210000
0!
#215000
b1101000 *
b1101000 ,
b1100100 +
b1100100 )
1!
#220000
0!
#225000
b1101100 *
b1101100 ,
b1101000 +
b1101000 )
1!
#230000
0!
#235000
b1110000 *
b1110000 ,
b1101100 +
b1101100 )
1!
